20
0 2 0 1 2 1 0 0 3 0 1 1 1 1 0 0 3 0 1 2
4 9 583
4 6 -431
5 9 325
17 6 131
17 2 -520
2 16 696
5 7 662
17 15 845
7 8 307
13 7 849
9 19 242
20 6 909
7 11 -775
17 18 557
14 20 95
18 10 646
4 3 -168
1 3 -917
11 12 30

